<svg width="29" height="19" viewBox="0 0 29 19" fill="none" xmlns="http://www.w3.org/2000/svg">
<path opacity="0.3" d="M19.5225 0C19.038 0 18.639 0.396423 18.639 0.877794C18.639 0.962742 18.639 1.04769 18.6675 1.10432L19.722 5.01192H11.4285L10.887 3.00149C10.773 2.60507 10.431 2.35022 10.032 2.35022H6.6975C6.213 2.35022 5.814 2.77496 5.814 3.25633C5.814 3.7377 6.213 4.10581 6.6975 4.13413H9.348L9.7185 5.49329L7.7805 8.49478C7.0965 8.18331 6.3555 8.01341 5.5575 8.01341C2.4795 8.01341 0 10.4769 0 13.5067C0 16.5365 2.4795 19 5.529 19C8.2365 19 10.488 17.0745 10.9725 14.5261H12.768C12.7965 14.5261 12.8535 14.5261 12.882 14.5261C13.224 14.5261 13.566 14.3279 13.7085 14.0164L20.349 7.36215L20.6625 8.5231C18.753 9.40089 17.4135 11.2981 17.4135 13.5067C17.4135 16.5365 19.893 19 22.9425 19C25.992 19 28.4715 16.5365 28.4715 13.5067C28.4715 10.4769 25.992 8.01341 22.9425 8.01341C22.743 8.01341 22.572 8.01341 22.3725 8.04173L20.691 1.7839H23.769C24.1395 1.7839 24.4245 2.06706 24.4245 2.43517C24.4245 2.80328 24.1395 3.08644 23.769 3.08644H23.028C22.5435 3.08644 22.1445 3.48286 22.1445 3.96423C22.1445 4.4456 22.5435 4.84203 23.028 4.84203H23.769C25.1085 4.84203 26.22 3.7377 26.22 2.40686C26.22 1.07601 25.1085 0 23.769 0H19.5225ZM11.913 6.79583H18.411L13.281 11.921L11.913 6.79583ZM10.317 7.78689L11.6565 12.7422H11.001C10.83 11.4396 10.1745 10.2787 9.2625 9.45753L10.317 7.78689ZM5.529 9.769C5.9565 9.769 6.384 9.85395 6.783 9.99553L4.731 13.1386C4.4745 13.5633 4.5885 14.1013 5.016 14.3562C5.1585 14.4411 5.3295 14.4978 5.5005 14.4978H9.12C8.664 16.0551 7.239 17.2161 5.529 17.2161C3.4485 17.2161 1.767 15.5738 1.767 13.5067C1.767 11.4396 3.4485 9.769 5.529 9.769ZM22.9425 9.769C25.023 9.769 26.7045 11.4396 26.7045 13.5067C26.7045 15.5738 25.023 17.2161 22.9425 17.2161C20.862 17.2161 19.1805 15.5738 19.1805 13.5067C19.1805 12.0909 19.95 10.9016 21.1185 10.2504L21.945 13.3368C22.059 13.8182 22.5435 14.1013 23.028 13.9881C23.5125 13.8748 23.7975 13.3934 23.6835 12.9121C23.6835 12.8838 23.6835 12.8838 23.6835 12.8554L22.857 9.769C22.8855 9.79732 22.914 9.769 22.9425 9.769ZM8.265 10.9583C8.721 11.4396 9.063 12.0626 9.2055 12.7422H7.125L8.265 10.9583Z" fill="#274653"/>
</svg>
