<svg width="35" height="15" viewBox="0 0 35 15" fill="none" xmlns="http://www.w3.org/2000/svg">
<path d="M31.6567 4.48553H28.209L24.9179 0.289389C24.7612 0.096463 24.5522 0 24.3433 0H17.291H10.5C10.291 0 10.0821 0.096463 9.92537 0.289389L6.68657 4.48553H3.23881C1.46269 4.48553 0 5.83601 0 7.47588V9.21222C0 10.8521 1.46269 12.2026 3.23881 12.2026H3.76119C4.07463 13.7942 5.53731 15 7.36567 15C9.14179 15 10.6567 13.7942 10.9701 12.2026H24.0299C24.3433 13.7942 25.806 15 27.6343 15C29.4104 15 30.9254 13.7942 31.2388 12.2026H31.7612C33.5373 12.2026 35 10.8521 35 9.21222V7.47588C34.8433 5.83601 33.4328 4.48553 31.6567 4.48553ZM26.4328 4.48553H18.0224V1.30225H23.9776L26.4328 4.48553ZM10.8657 1.30225H16.5597V4.48553H8.41045L10.8657 1.30225ZM7.31343 13.6495C6.3209 13.6495 5.43284 13.0225 5.17164 12.1543C5.1194 11.9614 5.06716 11.7685 5.06716 11.5756C5.06716 11.3344 5.1194 11.0932 5.22388 10.8521C5.53731 10.0804 6.37313 9.50161 7.31343 9.50161C8.25373 9.50161 9.08955 10.0804 9.40298 10.8521C9.50746 11.0932 9.5597 11.3344 9.5597 11.5756C9.5597 11.7685 9.50746 11.9614 9.45522 12.1543C9.19403 13.0225 8.35821 13.6495 7.31343 13.6495ZM27.5299 13.6495C26.5373 13.6495 25.6493 13.0225 25.3881 12.1543C25.3358 11.9614 25.2836 11.7685 25.2836 11.5756C25.2836 11.3344 25.3358 11.0932 25.4403 10.8521C25.7537 10.0804 26.5896 9.50161 27.5299 9.50161C28.4701 9.50161 29.306 10.0804 29.6194 10.8521C29.7239 11.0932 29.7761 11.3344 29.7761 11.5756C29.7761 11.7685 29.7239 11.9614 29.6716 12.1543C29.4104 13.0225 28.5224 13.6495 27.5299 13.6495ZM33.4328 9.16399C33.4328 10.0804 32.597 10.8521 31.6045 10.8521H31.0821C30.7164 9.35691 29.2537 8.19936 27.5299 8.19936C25.806 8.19936 24.3433 9.35691 23.9776 10.8521H10.8657C10.5 9.35691 9.03731 8.19936 7.31343 8.19936C5.58955 8.19936 4.12687 9.35691 3.76119 10.8521H3.23881C2.24627 10.8521 1.41045 10.0804 1.41045 9.16399V7.47588C1.41045 6.55949 2.24627 5.78778 3.23881 5.78778H31.6567C32.6493 5.78778 33.4851 6.55949 33.4851 7.47588L33.4328 9.16399Z" fill="#274653" fill-opacity="0.3"/>
</svg>
