<?xml version="1.0" encoding="UTF-8" standalone="no"?>
<svg
   xmlns:dc="http://purl.org/dc/elements/1.1/"
   xmlns:cc="http://creativecommons.org/ns#"
   xmlns:rdf="http://www.w3.org/1999/02/22-rdf-syntax-ns#"
   xmlns:svg="http://www.w3.org/2000/svg"
   xmlns="http://www.w3.org/2000/svg"
   id="svg876"
   version="1.1"
   fill="none"
   viewBox="0 0 24 27"
   height="27"
   width="24">
  <metadata
     id="metadata882">
    <rdf:RDF>
      <cc:Work
         rdf:about="">
        <dc:format>image/svg+xml</dc:format>
        <dc:type
           rdf:resource="http://purl.org/dc/dcmitype/StillImage" />
        <dc:title></dc:title>
      </cc:Work>
    </rdf:RDF>
  </metadata>
  <defs
     id="defs880" />
  <g
     transform="translate(0.75,0.875)"
     id="g1447">
    <circle
       cx="11.25"
       cy="7.25"
       r="5.25"
       fill="#8599A2"
       stroke="#274653"
       stroke-width="2.5"
       id="circle872" />
    <path
       d="M 11.25,14 C 6.14137,14 2,18.1414 2,23.25 H 20.5 C 20.5,18.1414 16.3586,14 11.25,14 Z"
       fill="#8599A2"
       stroke="#274653"
       stroke-width="2.5"
       id="path874" />
  </g>
</svg>
